<svg width="22" height="22" viewBox="0 0 22 22" fill="none" xmlns="http://www.w3.org/2000/svg">
<path d="M19.2499 11C19.0068 11 18.7736 11.0966 18.6017 11.2685C18.4298 11.4404 18.3333 11.6736 18.3333 11.9167V17.4167C18.3333 17.6598 18.2367 17.8929 18.0648 18.0648C17.8929 18.2368 17.6597 18.3333 17.4166 18.3333H4.58325C4.34014 18.3333 4.10698 18.2368 3.93507 18.0648C3.76316 17.8929 3.66659 17.6598 3.66659 17.4167V4.58333C3.66659 4.34022 3.76316 4.10706 3.93507 3.93515C4.10698 3.76324 4.34014 3.66667 4.58325 3.66667H10.0833C10.3264 3.66667 10.5595 3.57009 10.7314 3.39818C10.9033 3.22627 10.9999 2.99312 10.9999 2.75C10.9999 2.50688 10.9033 2.27373 10.7314 2.10182C10.5595 1.92991 10.3264 1.83333 10.0833 1.83333H4.58325C3.85391 1.83333 3.15443 2.12306 2.63871 2.63879C2.12298 3.15451 1.83325 3.85399 1.83325 4.58333V17.4167C1.83325 18.146 2.12298 18.8455 2.63871 19.3612C3.15443 19.8769 3.85391 20.1667 4.58325 20.1667H17.4166C18.1459 20.1667 18.8454 19.8769 19.3611 19.3612C19.8769 18.8455 20.1666 18.146 20.1666 17.4167V11.9167C20.1666 11.6736 20.07 11.4404 19.8981 11.2685C19.7262 11.0966 19.493 11 19.2499 11ZM5.49992 11.6967V15.5833C5.49992 15.8264 5.5965 16.0596 5.7684 16.2315C5.94031 16.4034 6.17347 16.5 6.41658 16.5H10.3033C10.4239 16.5007 10.5435 16.4776 10.6552 16.432C10.7668 16.3863 10.8684 16.3191 10.9541 16.2342L17.2974 9.88167L19.9008 7.33333C19.9867 7.24812 20.0549 7.14673 20.1014 7.03503C20.1479 6.92332 20.1719 6.80351 20.1719 6.6825C20.1719 6.56149 20.1479 6.44168 20.1014 6.32997C20.0549 6.21827 19.9867 6.11688 19.9008 6.03167L16.0141 2.09917C15.9289 2.01325 15.8275 1.94505 15.7158 1.89852C15.6041 1.85198 15.4843 1.82802 15.3633 1.82802C15.2422 1.82802 15.1224 1.85198 15.0107 1.89852C14.899 1.94505 14.7976 2.01325 14.7124 2.09917L12.1274 4.69333L5.76575 11.0458C5.68079 11.1315 5.61358 11.2331 5.56796 11.3448C5.52234 11.4564 5.49922 11.576 5.49992 11.6967ZM15.3633 4.0425L17.9574 6.63667L16.6558 7.93833L14.0616 5.34417L15.3633 4.0425ZM7.33325 12.0725L12.7691 6.63667L15.3633 9.23083L9.92742 14.6667H7.33325V12.0725Z" fill="#1F2D3D"/>
</svg>
