<svg width="24" height="24" viewBox="0 0 24 24" fill="none" xmlns="http://www.w3.org/2000/svg">
<circle opacity="0.2" cx="12" cy="12" r="11.25" stroke="#E6F6FE" stroke-width="1.5"/>
<circle cx="12" cy="12" r="5.25" stroke="#E6F6FE" stroke-width="1.5"/>
</svg>
