<svg width="32" height="32" viewBox="0 0 32 32" fill="none" xmlns="http://www.w3.org/2000/svg">
<path opacity="0.2" d="M4.57912 2.27175C11.8918 -0.757252 20.1082 -0.757252 27.4209 2.27175C28.4655 2.70447 29.2955 3.53445 29.7282 4.57912C32.7573 11.8918 32.7573 20.1082 29.7282 27.4209C29.2955 28.4655 28.4655 29.2955 27.4209 29.7282C20.1082 32.7573 11.8918 32.7573 4.57912 29.7282C3.53445 29.2955 2.70447 28.4655 2.27175 27.4209C-0.757251 20.1082 -0.757252 11.8918 2.27175 4.57912C2.70447 3.53446 3.53445 2.70447 4.57912 2.27175Z" fill="#1FB6FF"/>
<path d="M22.6592 7.66833C22.4381 7.66833 22.2262 7.75613 22.0699 7.91241C21.9136 8.06869 21.8258 8.28065 21.8258 8.50167V9.0325C21.123 9.90389 20.2347 10.6076 19.2256 11.0924C18.2165 11.5772 17.112 11.8309 15.9925 11.835H10.9925C10.3297 11.8357 9.69415 12.0993 9.22546 12.568C8.75676 13.0367 8.49315 13.6722 8.49249 14.335V16.0017C8.49315 16.6645 8.75676 17.3 9.22546 17.7687C9.69415 18.2374 10.3297 18.501 10.9925 18.5017H11.3958L9.39333 23.1733C9.33897 23.3001 9.31694 23.4385 9.32923 23.5759C9.34152 23.7133 9.38774 23.8455 9.46373 23.9607C9.53973 24.0758 9.64313 24.1703 9.76466 24.2357C9.88618 24.301 10.022 24.3351 10.16 24.335H13.4933C13.6563 24.3349 13.8156 24.287 13.9516 24.1973C14.0876 24.1075 14.1942 23.9798 14.2583 23.83L16.5283 18.5333C17.5538 18.6087 18.553 18.8934 19.4641 19.37C20.3753 19.8465 21.179 20.5048 21.8258 21.3042V21.835C21.8258 22.056 21.9136 22.268 22.0699 22.4243C22.2262 22.5805 22.4381 22.6683 22.6592 22.6683C22.8802 22.6683 23.0921 22.5805 23.2484 22.4243C23.4047 22.268 23.4925 22.056 23.4925 21.835C23.4925 21.835 24.125 17.6683 24.125 14.7499C24.125 11.8315 23.4925 8.50167 23.4925 8.50167C23.4925 8.28065 23.4047 8.06869 23.2484 7.91241C23.0921 7.75613 22.8802 7.66833 22.6592 7.66833ZM10.9925 16.835C10.7715 16.835 10.5595 16.7472 10.4032 16.5909C10.247 16.4346 10.1592 16.2227 10.1592 16.0017V14.335C10.1592 14.114 10.247 13.902 10.4032 13.7457C10.5595 13.5895 10.7715 13.5017 10.9925 13.5017H11.8258V16.835H10.9925ZM12.9433 22.6683H11.4233L13.2083 18.5017H14.7292L12.9433 22.6683ZM21.8267 18.9367C20.1836 17.583 18.1222 16.8403 15.9933 16.835H13.4933V13.5017H15.9933C18.1222 13.4963 20.1835 12.7536 21.8267 11.4V18.9367Z" fill="#1FB6FF"/>
</svg>
