<svg width="24" height="24" viewBox="0 0 24 24" fill="none" xmlns="http://www.w3.org/2000/svg">
<path d="M11 11.9V17C11 17.2652 11.1054 17.5196 11.2929 17.7071C11.4804 17.8947 11.7348 18 12 18C12.2652 18 12.5196 17.8947 12.7071 17.7071C12.8946 17.5196 13 17.2652 13 17V11.9C14.214 11.6522 15.2928 10.9624 16.0272 9.96443C16.7616 8.96643 17.0992 7.7313 16.9747 6.49849C16.8501 5.26569 16.2723 4.12304 15.3532 3.29208C14.434 2.46112 13.2391 2.00104 12 2.00104C10.7609 2.00104 9.56598 2.46112 8.64685 3.29208C7.72771 4.12304 7.14986 5.26569 7.02532 6.49849C6.90078 7.7313 7.23843 8.96643 7.9728 9.96443C8.70718 10.9624 9.78596 11.6522 11 11.9ZM12 4.00002C12.5933 4.00002 13.1734 4.17596 13.6667 4.50561C14.1601 4.83525 14.5446 5.30379 14.7716 5.85197C14.9987 6.40015 15.0581 7.00335 14.9424 7.58529C14.8266 8.16723 14.5409 8.70178 14.1213 9.12134C13.7018 9.5409 13.1672 9.82662 12.5853 9.94237C12.0033 10.0581 11.4001 9.99872 10.8519 9.77166C10.3038 9.54459 9.83524 9.16008 9.50559 8.66673C9.17595 8.17338 9 7.59336 9 7.00002C9 6.20437 9.31607 5.44131 9.87868 4.8787C10.4413 4.31609 11.2044 4.00002 12 4.00002ZM16.21 14.42C16.0787 14.3924 15.9432 14.391 15.8113 14.4158C15.6795 14.4406 15.5537 14.4911 15.4414 14.5644C15.329 14.6378 15.2322 14.7325 15.1565 14.8433C15.0808 14.9541 15.0276 15.0787 15 15.21C14.9724 15.3413 14.971 15.4768 14.9958 15.6087C15.0205 15.7406 15.071 15.8663 15.1444 15.9786C15.2178 16.091 15.3125 16.1878 15.4233 16.2635C15.5341 16.3393 15.6587 16.3924 15.79 16.42C18.06 16.87 19 17.68 19 18C19 18.58 16.55 20 12 20C7.45 20 5 18.58 5 18C5 17.68 5.94 16.87 8.21 16.38C8.34132 16.3524 8.46593 16.2993 8.5767 16.2235C8.68747 16.1478 8.78224 16.051 8.8556 15.9386C8.92896 15.8263 8.97947 15.7006 9.00424 15.5687C9.02902 15.4368 9.02758 15.3013 9 15.17C8.97242 15.0387 8.91925 14.9141 8.84352 14.8033C8.76778 14.6925 8.67097 14.5978 8.55861 14.5244C8.44626 14.4511 8.32055 14.4006 8.18867 14.3758C8.05679 14.351 7.92132 14.3524 7.79 14.38C4.75 15.08 3 16.39 3 18C3 20.63 7.53 22 12 22C16.47 22 21 20.63 21 18C21 16.39 19.25 15.08 16.21 14.42Z" fill="#8492A6"/>
</svg>
