<svg width="32" height="32" viewBox="0 0 32 32" fill="none" xmlns="http://www.w3.org/2000/svg">
<path opacity="0.2" d="M4.57912 2.27175C11.8918 -0.757252 20.1082 -0.757252 27.4209 2.27175C28.4655 2.70447 29.2955 3.53445 29.7282 4.57912C32.7573 11.8918 32.7573 20.1082 29.7282 27.4209C29.2955 28.4655 28.4655 29.2955 27.4209 29.7282C20.1082 32.7573 11.8918 32.7573 4.57912 29.7282C3.53445 29.2955 2.70447 28.4655 2.27175 27.4209C-0.757251 20.1082 -0.757252 11.8918 2.27175 4.57912C2.70447 3.53446 3.53445 2.70447 4.57912 2.27175Z" fill="#1FB6FF"/>
<path d="M21.8334 12.6666H21V10.1666C21 9.50358 20.7366 8.8677 20.2678 8.39886C19.7989 7.93002 19.1631 7.66663 18.5 7.66663H10.1667C9.50365 7.66663 8.86776 7.93002 8.39892 8.39886C7.93008 8.8677 7.66669 9.50358 7.66669 10.1666V20.1666C7.66751 20.3311 7.71701 20.4917 7.80895 20.6282C7.9009 20.7646 8.03117 20.8708 8.18335 20.9333C8.28225 20.9799 8.39071 21.0028 8.50002 21C8.60969 21.0006 8.71841 20.9796 8.81994 20.9381C8.92147 20.8966 9.01382 20.8355 9.09169 20.7583L11.4334 18.4083H12.6667V19.6083C12.6667 20.2713 12.9301 20.9072 13.3989 21.3761C13.8678 21.8449 14.5036 22.1083 15.1667 22.1083H20.9334L22.9084 24.0916C22.9862 24.1689 23.0786 24.23 23.1801 24.2714C23.2816 24.3129 23.3903 24.3339 23.5 24.3333C23.6093 24.3361 23.7178 24.3133 23.8167 24.2666C23.9689 24.2041 24.0991 24.0979 24.1911 23.9615C24.283 23.8251 24.3325 23.6645 24.3334 23.5V15.1666C24.3334 14.5036 24.07 13.8677 23.6011 13.3989C23.1323 12.93 22.4964 12.6666 21.8334 12.6666ZM12.6667 15.1666V16.7416H11.0917C10.982 16.741 10.8733 16.762 10.7718 16.8035C10.6702 16.845 10.5779 16.9061 10.5 16.9833L9.33335 18.1583V10.1666C9.33335 9.94561 9.42115 9.73365 9.57743 9.57737C9.73371 9.42109 9.94567 9.33329 10.1667 9.33329H18.5C18.721 9.33329 18.933 9.42109 19.0893 9.57737C19.2456 9.73365 19.3334 9.94561 19.3334 10.1666V12.6666H15.1667C14.5036 12.6666 13.8678 12.93 13.3989 13.3989C12.9301 13.8677 12.6667 14.5036 12.6667 15.1666ZM22.6667 21.4916L21.8334 20.6583C21.7562 20.5796 21.6641 20.5169 21.5626 20.474C21.461 20.4311 21.3519 20.4088 21.2417 20.4083H15.1667C14.9457 20.4083 14.7337 20.3205 14.5774 20.1642C14.4212 20.0079 14.3334 19.796 14.3334 19.575V15.1666C14.3334 14.9456 14.4212 14.7337 14.5774 14.5774C14.7337 14.4211 14.9457 14.3333 15.1667 14.3333H21.8334C22.0544 14.3333 22.2663 14.4211 22.4226 14.5774C22.5789 14.7337 22.6667 14.9456 22.6667 15.1666V21.4916Z" fill="#1FB6FF"/>
</svg>
