<svg width="12" height="12" viewBox="0 0 12 12" fill="none" xmlns="http://www.w3.org/2000/svg">
<path d="M9.64193 1.14748C9.7357 1.05372 9.86287 1.00104 9.99548 1.00104C10.1281 1.00104 10.2553 1.05372 10.349 1.14748C10.4428 1.24125 10.4955 1.36843 10.4955 1.50104C10.4955 1.50104 10.875 3.49896 10.875 5.25C10.875 7.00104 10.4955 9.50104 10.4955 9.50104C10.4955 9.63365 10.4428 9.76082 10.349 9.85459C10.2553 9.94836 10.1281 10.001 9.99548 10.001C9.86287 10.001 9.7357 9.94836 9.64193 9.85459C9.54816 9.76082 9.49548 9.63365 9.49548 9.50104V9.18254C9.10741 8.70293 8.62514 8.30795 8.07846 8.02201C7.53177 7.73607 6.93227 7.56523 6.31698 7.52004L4.95498 10.698C4.91652 10.7879 4.85253 10.8645 4.77094 10.9184C4.68935 10.9723 4.59375 11.001 4.49598 11.001H2.49598C2.4132 11.0011 2.3317 10.9806 2.25878 10.9414C2.18587 10.9022 2.12383 10.8455 2.07823 10.7765C2.03263 10.7074 2.0049 10.628 1.99753 10.5456C1.99015 10.4631 2.00337 10.3801 2.03598 10.304L3.23748 7.50104H2.99548C2.59778 7.50064 2.21648 7.34248 1.93526 7.06126C1.65404 6.78004 1.49588 6.39874 1.49548 6.00104V5.00104C1.49588 4.60333 1.65404 4.22203 1.93526 3.94082C2.21648 3.6596 2.59778 3.50144 2.99548 3.50104L5.99548 3.50104C6.66718 3.49856 7.32988 3.34635 7.93534 3.05547C8.5408 2.76459 9.07377 2.34237 9.49548 1.81954V1.50104C9.49548 1.36843 9.54816 1.24125 9.64193 1.14748Z" fill="#FF4949"/>
</svg>
