<svg width="24" height="24" viewBox="0 0 24 24" fill="none" xmlns="http://www.w3.org/2000/svg">
<path d="M19.991 2.00195C19.7258 2.00195 19.4715 2.10731 19.2839 2.29485C19.0964 2.48238 18.991 2.73674 18.991 3.00195V3.63895C18.1476 4.68461 17.0817 5.52906 15.8707 6.11081C14.6598 6.69257 13.3344 6.99701 11.991 7.00195L5.99103 7.00195C5.19562 7.00275 4.43302 7.31907 3.87058 7.88151C3.30815 8.44395 2.99182 9.20655 2.99103 10.002V12.002C2.99182 12.7974 3.30815 13.56 3.87058 14.1224C4.43302 14.6848 5.19562 15.0012 5.99103 15.002H6.47503L4.07203 20.608C4.0068 20.7601 3.98037 20.9261 3.99511 21.091C4.00986 21.2559 4.06532 21.4146 4.15652 21.5528C4.24772 21.691 4.3718 21.8043 4.51762 21.8827C4.66345 21.9611 4.82646 22.0021 4.99203 22.002H8.99203C9.18756 22.0019 9.37876 21.9444 9.54194 21.8367C9.70512 21.729 9.83311 21.5757 9.91003 21.396L12.634 15.04C13.8646 15.1303 15.0636 15.472 16.157 16.0439C17.2504 16.6158 18.2149 17.4057 18.991 18.365V19.002C18.991 19.2672 19.0964 19.5215 19.2839 19.7091C19.4715 19.8966 19.7258 20.002 19.991 20.002C20.2562 20.002 20.5106 19.8966 20.6981 19.7091C20.8857 19.5215 20.991 19.2672 20.991 19.002C20.991 19.002 21.75 14.002 21.75 10.4999C21.75 6.9978 20.991 3.00195 20.991 3.00195C20.991 2.73674 20.8857 2.48238 20.6981 2.29485C20.5106 2.10731 20.2562 2.00195 19.991 2.00195ZM5.99103 13.002C5.72581 13.002 5.47146 12.8966 5.28392 12.7091C5.09638 12.5215 4.99103 12.2672 4.99103 12.002V10.002C4.99103 9.73674 5.09638 9.48238 5.28392 9.29485C5.47146 9.10731 5.72581 9.00195 5.99103 9.00195H6.99103V13.002H5.99103ZM8.33203 20.002H6.50803L8.65003 15.002H10.475L8.33203 20.002ZM18.992 15.524C17.0203 13.8995 14.5467 13.0083 11.992 13.002H8.99203V9.00195H11.992C14.5467 8.9955 17.0203 8.10431 18.992 6.47995V15.524Z" fill="white"/>
</svg>
