<svg width="32" height="32" viewBox="0 0 32 32" fill="none" xmlns="http://www.w3.org/2000/svg">
<path fill-rule="evenodd" clip-rule="evenodd" d="M16.3677 3.16544L20.1317 6.99021C20.3898 7.25292 20.3898 7.68232 20.1317 7.94594C20.0067 8.07368 19.841 8.14343 19.6653 8.14343C19.4887 8.14253 19.3247 8.07368 19.1997 7.94594L16.6693 5.37587V19.0769C16.6693 19.4501 16.3732 19.7527 16.0091 19.7527C15.645 19.7527 15.3489 19.4501 15.3489 19.0769V5.40848L12.8493 7.94594C12.5993 8.20141 12.1655 8.2005 11.9173 7.94685C11.6583 7.68232 11.6583 7.25292 11.9173 6.99021L15.6813 3.16544C15.8986 2.9444 16.1522 2.94531 16.3677 3.16544ZM23.949 12.7319V25.4147C23.949 26.2898 23.239 27 22.3641 27H9.68488C8.80911 27 8.09998 26.2898 8.09998 25.4147V12.7319C8.09998 11.8559 8.80911 11.1465 9.68488 11.1465H13.0721V12.5054H10.2881C9.82979 12.5054 9.45847 12.8768 9.45847 13.3352V24.8113C9.45847 25.2688 9.82979 25.6411 10.2881 25.6411H21.761C22.2192 25.6411 22.5905 25.2688 22.5905 24.8113V13.3352C22.5905 12.8768 22.2192 12.5054 21.761 12.5054H18.9679V11.1465H22.3641C23.239 11.1465 23.949 11.8559 23.949 12.7319Z" fill="white"/>
</svg>
