<svg width="208" height="40" viewBox="0 0 208 40" fill="none" xmlns="http://www.w3.org/2000/svg">
<path d="M89.8799 7.80901C92.0409 7.80901 93.809 6.04093 93.809 3.92906C93.809 1.81719 92.0409 0 89.8799 0C87.7681 0 86 1.81719 86 3.92906C86 6.04093 87.7681 7.80901 89.8799 7.80901ZM93.0723 35.3124V10.7558H86.7367V35.3124H93.0723Z" fill="white"/>
<path d="M112.525 10.0682C109.185 10.0682 106.729 11.1978 105.207 13.5061V10.7558H98.8711V35.3124H105.207V22.0518C105.207 17.9754 107.319 15.9618 110.609 15.9618C113.556 15.9618 115.471 17.7299 115.471 21.0205V35.3124H121.807V20.2347C121.807 17.0423 120.923 14.5866 119.155 12.7694C117.436 10.9523 115.226 10.0682 112.525 10.0682Z" fill="white"/>
<path d="M133.061 17.7299C133.061 16.502 134.289 15.7162 135.91 15.7162C137.727 15.7162 139.053 16.5512 139.839 18.221L145.241 15.2742C143.326 11.9345 139.888 10.0682 135.91 10.0682C133.258 10.0682 131.048 10.7558 129.23 12.1801C127.462 13.5553 126.578 15.4707 126.578 17.8772C126.578 22.985 131.146 24.5075 134.78 25.4407C137.285 26.0791 139.249 26.8158 139.249 28.1419C139.249 29.5662 138.12 30.2537 135.861 30.2537C133.356 30.2537 131.784 29.1733 131.048 27.0614L125.547 30.1555C127.364 34.0355 130.802 36 135.861 36C138.66 36 141.018 35.3124 142.884 33.9864C144.799 32.6112 145.732 30.6467 145.732 28.1419C145.782 22.8868 141.116 21.1678 137.531 20.4311C135.026 19.7926 133.061 19.0559 133.061 17.7299Z" fill="white"/>
<path d="M166.014 24.0164C166.014 28.0928 163.902 30.1064 160.612 30.1064C157.665 30.1064 155.75 28.3383 155.75 25.0477V10.7558H149.414V25.8336C149.414 29.0259 150.298 31.4816 152.017 33.2988C153.785 35.116 155.995 36 158.696 36C162.036 36 164.492 34.8704 166.014 32.5621V35.3124H172.35V10.7558H166.014V24.0164Z" fill="white"/>
<path d="M192.444 10.0682C189.007 10.0682 186.354 11.2469 184.488 13.6535V0.933151H178.153V35.3124H184.488V32.4147C186.354 34.8213 189.007 36 192.444 36C195.735 36 198.584 34.7722 200.892 32.2674C203.249 29.7626 204.428 26.6685 204.428 23.0341C204.428 19.3997 203.249 16.3547 200.892 13.8499C198.584 11.3452 195.735 10.0682 192.444 10.0682ZM186.404 28.0437C185.127 26.7176 184.488 25.0477 184.488 23.0341C184.488 21.0205 185.127 19.3506 186.404 18.0737C187.681 16.7476 189.301 16.1091 191.266 16.1091C193.23 16.1091 194.851 16.7476 196.128 18.0737C197.454 19.3506 198.093 21.0205 198.093 23.0341C198.093 25.0477 197.454 26.7176 196.128 28.0437C194.851 29.3206 193.23 29.9591 191.266 29.9591C189.301 29.9591 187.681 29.3206 186.404 28.0437Z" fill="white"/>
<path fill-rule="evenodd" clip-rule="evenodd" d="M70 20C70 31.0457 59.6731 40 42 40C34.6487 40 26.4923 38.4507 19.4724 35.8461L10.5001 39.8914V31.507C5.35792 28.2528 2 24.2837 2 20C2 8.9543 24.3269 0 42 0C59.6731 0 70 8.9543 70 20ZM52.5002 26.0001C55.8139 26.0001 58.5002 23.3138 58.5002 20.0001C58.5002 16.6864 55.8139 14.0001 52.5002 14.0001C49.1865 14.0001 46.5002 16.6864 46.5002 20.0001C46.5002 23.3138 49.1865 26.0001 52.5002 26.0001ZM40.5004 20.0001C40.5004 22.7615 38.2618 25.0001 35.5004 25.0001C32.7389 25.0001 30.5004 22.7615 30.5004 20.0001C30.5004 17.2387 32.7389 15.0001 35.5004 15.0001C38.2618 15.0001 40.5004 17.2387 40.5004 20.0001ZM20.5003 23.9998C22.7094 23.9998 24.5003 22.209 24.5003 19.9998C24.5003 17.7907 22.7094 15.9998 20.5003 15.9998C18.2911 15.9998 16.5003 17.7907 16.5003 19.9998C16.5003 22.209 18.2911 23.9998 20.5003 23.9998Z" fill="white"/>
</svg>
